%YAML 1.1
%TAG !u! tag:unity3d.com,2011:
--- !u!114 &11400000
MonoBehaviour:
  m_ObjectHideFlags: 0
  m_CorrespondingSourceObject: {fileID: 0}
  m_PrefabInstance: {fileID: 0}
  m_PrefabAsset: {fileID: 0}
  m_GameObject: {fileID: 0}
  m_Enabled: 1
  m_EditorHideFlags: 0
  m_Script: {fileID: 11500000, guid: 929e24fe445ce6c4db791f0b2ad40e58, type: 3}
  m_Name: Card6
  m_EditorClassIdentifier: 
  name: Card 6
  description: This is card 6
  manaCost: 6
  health: 6
  attack: 6
